<svg width="14" height="14" viewBox="0 0 14 14" fill="none" xmlns="http://www.w3.org/2000/svg">
    <path d="M7.00009 13.4467C6.91905 13.4489 6.83878 13.4306 6.76675 13.3934C6.56009 13.2801 1.62009 10.6601 0.586752 7.12672C-0.006581 5.12672 0.193419 3.17339 1.12009 1.93339C1.45877 1.48587 1.90049 1.12673 2.40769 0.886476C2.91489 0.646222 3.4726 0.531955 4.03342 0.553385C4.63543 0.523898 5.23349 0.665389 5.75847 0.961502C6.28345 1.25761 6.71391 1.69626 7.00009 2.22672C7.28626 1.69626 7.71672 1.25761 8.2417 0.961502C8.76668 0.665389 9.36474 0.523898 9.96675 0.553385C10.5276 0.531955 11.0853 0.646222 11.5925 0.886476C12.0997 1.12673 12.5414 1.48587 12.8801 1.93339C13.8068 3.17339 14.0068 5.11338 13.4134 7.12672C12.3734 10.6601 7.41342 13.2801 7.23342 13.3934C7.16139 13.4306 7.08112 13.4489 7.00009 13.4467ZM4.03342 1.55339C3.62792 1.53176 3.22329 1.60978 2.8549 1.78061C2.4865 1.95144 2.16555 2.2099 1.92009 2.53339C1.18009 3.52005 1.04009 5.13339 1.54675 6.84672C2.34675 9.57339 6.03342 11.8267 7.00009 12.3801C7.96675 11.8267 11.6668 9.56672 12.4534 6.84672C12.9601 5.13339 12.8134 3.51339 12.0801 2.53339C11.8346 2.2099 11.5137 1.95144 11.1453 1.78061C10.7769 1.60978 10.3723 1.53176 9.96675 1.55339C7.68675 1.55339 7.51342 3.76005 7.50009 4.00672C7.49332 4.13528 7.43787 4.25644 7.345 4.34559C7.25213 4.43474 7.12881 4.4852 7.00009 4.48672V4.48672C6.87136 4.4852 6.74804 4.43474 6.65517 4.34559C6.5623 4.25644 6.50685 4.13528 6.50009 4.00672C6.48675 3.76005 6.33342 1.55339 4.03342 1.55339Z" fill="#00B7C4"/>
    <path d="M6.14678 10.1734C6.01969 10.172 5.89439 10.1433 5.77937 10.0892C5.66435 10.0352 5.56229 9.95701 5.48011 9.86005L3.37345 7.37338H1.03345C0.900839 7.37338 0.773662 7.3207 0.679894 7.22694C0.586126 7.13317 0.533447 7.00599 0.533447 6.87338C0.533447 6.74078 0.586126 6.6136 0.679894 6.51983C0.773662 6.42606 0.900839 6.37338 1.03345 6.37338H3.60678C3.67947 6.37354 3.75123 6.38975 3.81692 6.42087C3.88261 6.45199 3.94061 6.49724 3.98678 6.55338L6.13345 9.09338L8.33345 5.46005C8.40131 5.33694 8.49686 5.2313 8.61256 5.15147C8.72826 5.07163 8.86094 5.0198 9.00011 5.00005C9.13887 4.9808 9.28022 4.99495 9.41241 5.04133C9.5446 5.08771 9.66381 5.16498 9.76011 5.26672L10.6801 6.20672H13.0001C13.1327 6.20672 13.2599 6.25939 13.3537 6.35316C13.4474 6.44693 13.5001 6.57411 13.5001 6.70672C13.5001 6.83932 13.4474 6.9665 13.3537 7.06027C13.2599 7.15404 13.1327 7.20672 13.0001 7.20672H10.4601C10.3255 7.20691 10.1962 7.15424 10.1001 7.06005L9.10678 6.04005L6.90678 9.72672C6.83552 9.84394 6.73841 9.94332 6.62287 10.0173C6.50732 10.0912 6.3764 10.1378 6.24011 10.1534L6.14678 10.1734Z" fill="#00B7C4"/>
</svg>
