<svg width="20" height="20" viewBox="0 0 20 20" fill="none" xmlns="http://www.w3.org/2000/svg">
    <path d="M15.3582 15.8336C12.9666 15.8336 11.7166 13.6086 11.2916 12.6502H8.70824C8.28324 13.6419 7.03324 15.8336 4.64157 15.8336C1.3999 15.8336 1.3999 13.1086 1.3999 11.9502C1.3999 10.5419 3.6499 6.11689 4.0999 5.28356C4.16044 5.192 4.24373 5.11774 4.34161 5.06807C4.43949 5.0184 4.5486 4.99502 4.65824 5.00022H15.3416C15.4569 5.00092 15.5699 5.03312 15.6683 5.09333C15.7667 5.15355 15.8468 5.23949 15.8999 5.34189C16.3499 6.17522 18.5999 10.6086 18.5999 12.0086C18.5999 13.1419 18.5999 15.8336 15.3582 15.8336ZM8.28324 11.4336H11.7166C11.8475 11.4324 11.9755 11.4729 12.0819 11.5494C12.1882 11.6258 12.2675 11.7341 12.3082 11.8586C12.3082 11.8586 13.2749 14.6169 15.3582 14.6169C17.2082 14.6169 17.3499 13.5252 17.3499 11.9836C17.3499 11.2169 16.0082 8.26689 14.9582 6.21689H5.04157C3.99157 8.26689 2.6499 11.2169 2.6499 11.9836C2.6499 13.5252 2.79157 14.6169 4.64157 14.6169C6.7249 14.6169 7.68324 11.8836 7.69157 11.8586C7.73227 11.7341 7.81156 11.6258 7.91794 11.5494C8.02432 11.4729 8.15226 11.4324 8.28324 11.4336Z" fill="#AC5DD9"/>
    <path d="M9.99987 6.21683C9.8539 6.21745 9.71231 6.16696 9.59967 6.07411C9.48704 5.98126 9.41045 5.85191 9.38321 5.7085C9.3001 5.17072 9.3251 4.62176 9.45674 4.09376C9.58838 3.56576 9.82402 3.06932 10.1499 2.6335C10.6013 2.15466 11.155 1.78385 11.7697 1.54867C12.3843 1.31348 13.0441 1.22 13.6999 1.27517C13.7819 1.27517 13.8632 1.29133 13.939 1.32274C14.0149 1.35415 14.0838 1.40019 14.1418 1.45822C14.1998 1.51626 14.2459 1.58516 14.2773 1.66099C14.3087 1.73682 14.3249 1.81809 14.3249 1.90017C14.3249 1.98224 14.3087 2.06351 14.2773 2.13934C14.2459 2.21517 14.1998 2.28407 14.1418 2.34211C14.0838 2.40014 14.0149 2.44618 13.939 2.47759C13.8632 2.509 13.7819 2.52517 13.6999 2.52517C13.2297 2.47725 12.7547 2.533 12.3083 2.6885C11.862 2.844 11.4552 3.09545 11.1165 3.42517C10.6908 4.0212 10.5117 4.75859 10.6165 5.4835C10.6309 5.5645 10.6292 5.64753 10.6114 5.72785C10.5936 5.80817 10.5601 5.88419 10.5129 5.95154C10.4657 6.0189 10.4056 6.07627 10.3362 6.12036C10.2667 6.16446 10.1893 6.19441 10.1082 6.2085L9.99987 6.21683Z" fill="#AC5DD9"/>
</svg>
