<svg width="20" height="20" viewBox="0 0 20 20" fill="none" xmlns="http://www.w3.org/2000/svg">
    <path d="M9.33953 5.88326V4.88662H10.6828V5.87537L10.726 5.88135C11.6149 6.00462 12.3542 6.35778 12.9342 6.90607L12.1901 7.87221C11.5578 7.26351 10.709 6.98329 9.87407 6.98329C9.84834 6.98329 9.82287 6.98367 9.79768 6.98441C9.40938 6.99589 9.08555 7.09532 8.8536 7.2667C8.60525 7.45019 8.46497 7.71446 8.46497 8.03157C8.46497 8.37124 8.68879 8.59149 9.01649 8.75395C9.3422 8.91542 9.78543 9.02762 10.2545 9.14636L10.2707 9.15048C10.934 9.31932 11.6501 9.50407 12.2013 9.86111C12.7483 10.2155 13.1316 10.7388 13.1316 11.5917C13.1316 12.177 12.9482 12.722 12.5583 13.1462C12.1684 13.5704 11.5681 13.8781 10.7267 13.9815L10.6828 13.9869V15.1073L9.33953 15.1073V13.9731L9.2964 13.9671C8.24602 13.8215 7.4507 13.3821 6.88388 12.7901L7.60623 11.79C8.16845 12.369 9.03157 12.8685 10.1387 12.8685C10.7237 12.8685 11.1389 12.7253 11.4088 12.5087C11.6793 12.2917 11.8003 12.0036 11.8003 11.724C11.8003 11.3398 11.5718 11.0922 11.2317 10.9121C10.8951 10.7338 10.4384 10.6154 9.95912 10.4912L9.9342 10.4847C9.27679 10.3219 8.57271 10.1461 8.03213 9.8025C7.49581 9.46161 7.12168 8.95638 7.12168 8.12779C7.12168 7.02084 7.95963 6.12231 9.29807 5.89045L9.33953 5.88326Z" fill="#AC5DD9"/>
    <path d="M10 1.6917C5.41322 1.6917 1.69487 5.41005 1.69487 9.99686C1.69487 14.5837 5.41322 18.302 10 18.302C14.5868 18.302 18.3052 14.5837 18.3052 9.99686C18.3052 8.73631 18.0244 7.54134 17.5218 6.47113L18.5646 5.86911C19.1673 7.11747 19.5052 8.51771 19.5052 9.99686C19.5052 15.2464 15.2496 19.502 10 19.502C4.75048 19.502 0.494873 15.2464 0.494873 9.99686C0.494873 4.7473 4.75048 0.491699 10 0.491699C12.3551 0.491699 14.5102 1.34822 16.1707 2.76675V0.773132H17.3707V3.9946C17.3823 4.00883 17.3939 4.0231 17.4054 4.0374L17.3707 4.05743V4.9595H13.1843V3.7595H15.4839C14.021 2.47235 12.1017 1.6917 10 1.6917Z" fill="#AC5DD9"/>
</svg>
